Place,Name,Sex,BirthDate,Equipment,Division,BodyweightKg,WeightClassKg,Squat1Kg,Squat2Kg,Squat3Kg,Best3SquatKg,Bench1Kg,Bench2Kg,Bench3Kg,Best3BenchKg,Deadlift1Kg,Deadlift2Kg,Deadlift3Kg,Best3DeadliftKg,TotalKg,Event
1,Yelyzaveta Lisa Timashkova,F,2002-06-06,Raw,Juniors,56,57,95,100,105,105,52.5,-55,-55,52.5,130,135,142.5,142.5,300,SBD
1,Jessica Jeremaes,F,2001-08-01,Raw,Juniors,64.5,69,127.5,135,140.5,140.5,80.5,85.5,90,90,145,155,162.5,162.5,393,SBD
2,Anja Buchmann,F,2003-08-01,Raw,Juniors,67.1,69,112.5,120,-125,120,77.5,-80,80,80,150,-160,-160,150,350,SBD
1,July Mondoux,F,2001-12-08,Raw,Juniors,70.4,76,110,120,-127.5,120,65,70,-75,70,145,150,152.5,152.5,342.5,SBD
1,Ana Brake,F,1969-07-15,Raw,Masters 2,59.3,63,-62.5,62.5,-67.5,62.5,40,45,50,50,77.5,82.5,87.5,87.5,200,SBD
1,Angie Clark,F,1969-06-21,Raw,Masters 2,103.7,84+,130,137.5,140.5,140.5,90,95.5,-98,95.5,157.5,168,172.5,172.5,408.5,SBD
1,Sophia Meier,F,2006-07-11,Raw,Sub-Juniors,68.4,69,95,100,105,105,52.5,55,-60,55,95,100,105,105,265,SBD
NS,Duarte Da Silva,M,2002-09-09,Raw,Juniors,,,,,,,,,,,,,,,,SBD
NS,Juan Mateo Suarez Gomez,M,2004-07-09,Raw,Juniors,,,,,,,,,,,,,,,,SBD
1,Andrés Ahumada,M,2001-04-06,Raw,Juniors,66,66,162.5,172.5,177.5,177.5,105,110,115,115,200,217.5,-225,217.5,510,SBD
2,Léo Rossetti,M,2003-06-16,Raw,Juniors,66,66,132.5,137.5,-140,137.5,95,100,102.5,102.5,187.5,197.5,202.5,202.5,442.5,SBD
3,Ala-Eddine Cheurfa,M,2000-03-29,Raw,Juniors,65.6,66,142.5,150,-155,150,90,-97.5,-100,90,185,195,-200,195,435,SBD
1,Davide Carciola,M,2004-12-14,Raw,Juniors,72.7,74,140,-150,-155,140,80,87.5,-92.5,87.5,200,212.5,-217.5,212.5,440,SBD
1,Lukas Tannheimer,M,2002-03-25,Raw,Juniors,81,83,-230,230,240,240,115,-120,120,120,220,230,232.5,232.5,592.5,SBD
2,Raphael Reinalter,M,2000-09-17,Raw,Juniors,82.1,83,165,172.5,-180,172.5,122.5,130,-136.5,130,-202.5,202.5,230,230,532.5,SBD
3,Leandro Caspar,M,2004-07-11,Raw,Juniors,82.7,83,172.5,185,195,195,115,125,-127.5,125,212.5,-225,-225,212.5,532.5,SBD
4,Björn Stoller,M,2000-04-28,Raw,Juniors,82.7,83,145,155,-160,155,112.5,-117.5,-117.5,112.5,155,165,175,175,442.5,SBD
1,Erik Schwarzenbach,M,2003-04-08,Raw,Juniors,92.8,93,220,230,240,240,145,152.5,160,160,240,252.5,265,265,665,SBD
2,Remi Tregan,M,2002-03-12,Raw,Juniors,85,93,217.5,230,240,240,127.5,135,140,140,245,265,-285,265,645,SBD
3,Janne Dvorak,M,2004-11-19,Raw,Juniors,91.8,93,195,207.5,215,215,142.5,150,157.5,157.5,232.5,-247.5,250,250,622.5,SBD
4,Benjamin Hostettler,M,2004-02-28,Raw,Juniors,90.3,93,210,222.5,230,230,117.5,125,-132.5,125,222.5,235,-245,235,590,SBD
5,Andreas Laourdas,M,2001-11-23,Raw,Juniors,92.1,93,175,185,195,195,120,127.5,-132.5,127.5,212.5,225,240,240,562.5,SBD
6,Fabian Fischer,M,2003-10-07,Raw,Juniors,91.8,93,25,,,25,132.5,140,-147.5,140,75,,,75,240,SBD
1,Botond-David Zsigmond,M,2003-02-24,Raw,Juniors,101.1,105,245,260,-270,260,145,157.5,-162.5,157.5,240,260,-270,260,677.5,SBD
1,Clément Bourqui,M,2004-10-23,Raw,Juniors,145.4,120+,260,-270,-280,260,145,152.5,-160,152.5,240,-250,-250,240,652.5,SBD
1,Mathias Braun,M,1977-10-21,Raw,Masters 1,82,83,200,-215,220,220,125,135,-140.5,135,190,205,215,215,570,SBD
2,Daniel Bomberger,M,1975-08-18,Raw,Masters 1,78.3,83,120,127.5,132.5,132.5,85,90,92.5,92.5,180,190,200,200,425,SBD
1,Luigi De Rosa,M,1977-10-11,Raw,Masters 1,88.2,93,180,190,200,200,110,115,-120,115,190,200,212.5,212.5,527.5,SBD
2,Manuel Scherzinger,M,1982-04-20,Raw,Masters 1,89.5,93,160,167.5,175,175,107.5,112.5,-115,112.5,-230,-230,230,230,517.5,SBD
3,Manuel Meyer,M,1979-04-06,Raw,Masters 1,90.6,93,155,165,-170,165,110,117.5,-120,117.5,185,202.5,207.5,207.5,490,SBD
NS,Peter Schoenenberger,M,1970-12-30,Raw,Masters 2,,,,,,,,,,,,,,,,SBD
1,Peter Hofer,M,1963-08-22,Raw,Masters 3,85.2,93,165,-175,180,180,110,115,-120.5,115,210,222.5,230,230,525,SBD
1,Florian Beeler,M,2006-08-21,Raw,Sub-Juniors,63.9,66,160,-167.5,167.5,167.5,90,95,-100,95,160,167.5,172.5,172.5,435,SBD
1,Mathias Vigh,M,2007-12-03,Raw,Sub-Juniors,66.8,74,165,-175,180,180,87.5,95,100,100,205,218,238.5,238.5,518.5,SBD
2,Ilias Seidel,M,2006-01-03,Raw,Sub-Juniors,73,74,-180,180,190.5,190.5,-105,112.5,117.5,117.5,190,200,210,210,518,SBD
3,Luca Manganaro,M,2006-02-04,Raw,Sub-Juniors,73.07,74,-150,150,160,160,100,102.5,-110,102.5,200,-210,210,210,472.5,SBD
1,Damien Kappeler,M,2005-07-28,Raw,Sub-Juniors,82,83,155,165,175,175,125,132.5,-137.5,132.5,200,212.5,220,220,527.5,SBD
2,Matéo Aerschmann,M,2006-04-29,Raw,Sub-Juniors,82.5,83,182.5,195,207.5,207.5,102.5,112.5,115,115,185,197.5,-212.5,197.5,520,SBD
1,Jakob Kühne,M,1960-10-14,Raw,Masters 3,115,120,,,,,120,127.5,-132.5,127.5,,,,,127.5,B
1,Julian Kohler,M,1995-09-19,Raw,Open,98.9,105,,,,,172.5,-180,180,180,,,,,180,B
2,Juan Antonio Pinillo,M,1991-09-20,Raw,Open,102,105,,,,,155,162.5,-167.5,162.5,,,,,162.5,B